cluster_num	cluster_name	category	ontology	term	FDR.over_represented	FDR.under_represented	numDEInCat	numInCat
1	earlyhigh	GO:0015979	BP	photosynthesis	3.40561666313852e-23	1	33	44
1	earlyhigh	GO:0009579	CC	thylakoid	3.18111218459535e-22	1	30	40
1	earlyhigh	GO:0000166	MF	nucleotide binding	4.35759788939088e-21	1	529	3034
1	earlyhigh	GO:0003677	MF	DNA binding	2.57999481852578e-11	1	200	1136
1	earlyhigh	GO:0003774	MF	motor activity	5.79783477967816e-11	1	32	68
1	earlyhigh	GO:0003824	MF	catalytic activity	1.68604332258716e-10	1	329	2169
1	earlyhigh	GO:0005515	MF	protein binding	1.48383854026707e-08	1	542	3599
1	earlyhigh	GO:0009536	CC	plastid	2.63688810781569e-08	1	14	23
1	earlyhigh	GO:0016301	MF	kinase activity	8.35605648667756e-08	1	192	1096
1	earlyhigh	GO:0005634	CC	nucleus	8.97186892913336e-08	1	99	501
1	earlyhigh	GO:0005856	CC	cytoskeleton	1.01541514913857e-07	1	39	132
1	earlyhigh	GO:0006950	BP	response to stress	2.86994734473283e-07	1	74	366
1	earlyhigh	GO:0009987	BP	cellular process	3.96203413589386e-07	1	312	2111
1	earlyhigh	GO:0007049	BP	cell cycle	5.87567747561854e-07	1	19	46
1	earlyhigh	GO:0008152	BP	metabolic process	2.02362983943286e-05	1	261	1946
1	earlyhigh	GO:0016020	CC	membrane	3.9354416152442e-05	1	258	1776
1	earlyhigh	GO:0016787	MF	hydrolase activity	8.55118601959096e-05	1	240	1614
1	earlyhigh	GO:0006464	BP	cellular protein modification process	0.000129687151139759	1	189	1184
1	earlyhigh	GO:0005198	MF	structural molecule activity	0.000391600846400422	1	46	300
1	earlyhigh	GO:0005488	MF	binding	0.000541999510422742	1	366	2787
1	earlyhigh	GO:0004518	MF	nuclease activity	0.000980156266146177	1	30	141
6	latehigh	GO:0006810	BP	transport	2.24011139510645e-11	1	138	1294
6	latehigh	GO:0003824	MF	catalytic activity	4.32325432463296e-10	1	195	2169
6	latehigh	GO:0008152	BP	metabolic process	1.86115066210785e-07	1	164	1946
6	latehigh	GO:0009987	BP	cellular process	2.40614841528622e-06	1	176	2111
6	latehigh	GO:0005739	CC	mitochondrion	4.02554586289845e-06	1	15	59
6	latehigh	GO:0005975	BP	carbohydrate metabolic process	7.69796691309816e-05	1	65	641
6	latehigh	GO:0016020	CC	membrane	0.000111997832993179	1	145	1776
6	latehigh	GO:0009056	BP	catabolic process	0.000483591629360937	1	69	723
6	latehigh	GO:0008289	MF	lipid binding	0.000881366953649577	1	14	80
6	latehigh	GO:0006259	BP	DNA metabolic process	1	5.19995759931979e-05	8	571
0	greenhigh	GO:0008152	BP	metabolic process	5.82857897906145e-06	1	92	1946
0	greenhigh	GO:0016020	CC	membrane	5.82857897906145e-06	1	88	1776
0	greenhigh	GO:0009056	BP	catabolic process	1.8066668045301e-05	1	46	723
0	greenhigh	GO:0003674	MF	molecular_function	8.06658375812218e-05	1	29	451
0	greenhigh	GO:0006810	BP	transport	0.000157340084641215	1	64	1294
0	greenhigh	GO:0005576	CC	extracellular region	0.000250367253094715	1	11	90
0	greenhigh	GO:0003677	MF	DNA binding	0.000759212604530379	1	55	1136
0	greenhigh	GO:0006629	BP	lipid metabolic process	0.00097506869159685	1	26	409
