gene	descr	pad	cup	mg	pink	ripe
CUFF.43261	SIMILAR TO GN80-9641-MONOMER (GSVIVT01015245001) EC-2.1.1.104 caffeoyl-CoA O-methyltransferase (scov=96.2,ident=72.8) PlantCyc PWY-361|phenylpropanoid biosynthesis;PWY-1121|suberin biosynthesis;PWY-6039|chlorogenic acid biosynthesis I	28.8599015618598	52.1018037434759	35.334920838604	2092.25654467395	2354.1803910515
CUFF.1944	SIMILAR TO GN7Y-31885-MONOMER (Potri.008G038200.1) EC-4.3.1.24 phenylalanine ammonia-lyase (scov=97.3,ident=86.9) PlantCyc PWY-1121|suberin biosynthesis;PWY1F-467|phenylpropanoid biosynthesis, initial reactions	713.365681938147	438.716114190302	659.934511646179	1138.96142409208	864.920709460369
CUFF.177	SIMILAR TO 834247-MONOMER (UniProt: A9P830) EC-2.1.1.68 caffeate 3-O-methyltransferase (scov=99.5,ident=80) PlantCyc PWY-2181|free phenylpropanoid acid biosynthesis;PWY-1121|suberin biosynthesis	349.098075810542	344.124335040026	815.742332660281	279.276777850162	296.377107228157
CUFF.725	SIMILAR TO GN7L-9388-MONOMER (evm.model.supercontig_2.290) EC-1.1.1.9 trans-cinnamate 4-monooxygenase; D-xylulose reductase (scov=96.8,ident=92) PlantCyc LARABITOLUTIL-PWY|xylitol degradation;PWY1F-467|phenylpropanoid biosynthesis, initial reactions;PWY-1121|suberin biosynthesis	81.3715139354663	72.4589932567616	92.3044277466813	178.074280750854	161.809121702774
CUFF.50225	SIMILAR TO GN7Y-35198-MONOMER (Potri.014G106600.1) EC-2.1.1.68 caffeate O-methyltransferase (scov=94.4,ident=64.8) PlantCyc PWY-2181|free phenylpropanoid acid biosynthesis;PWY-1121|suberin biosynthesis;PWY-361|phenylpropanoid biosynthesis	104.647525779536	107.058366394671	97.0104287287403	107.896285159086	111.135751247841
CUFF.20459	SIMILAR TO GN80-8834-MONOMER (GSVIVT01029183001) EC-6.2.1.12 4-coumarate-CoA ligase (scov=84.5,ident=85.4) PlantCyc PWY1F-FLAVSYN|flavonoid biosynthesis;PWY-6435|4-hydroxybenzoate biosynthesis V;PWY-1121|suberin biosynthesis;PWY-5754|4-hydroxybenzoate biosynthesis I (animals);PWY-361|phenylpropanoid biosynthesis	106.792635979094	67.1955450807768	81.5543453991973	116.544018502144	107.714673922964
CUFF.29739	SIMILAR TO GN7Y-28299-MONOMER (Potri.009G099800.1) EC-2.1.1.104 caffeoyl-CoA O-methyltransferase (scov=100,ident=89.5) PlantCyc PWY-1121|suberin biosynthesis;PWY-6039|chlorogenic acid biosynthesis I;PWY-361|phenylpropanoid biosynthesis	17.399570537513	21.9907011638499	125.523735182301	39.1269687768461	52.2371620887281
CUFF.56666	SIMILAR TO GN7Y-40046-MONOMER (Potri.001G277300.1) EC-1.14.13 palmitate-hydroxylase; 9,10-epoxystearate hydroxylase; oleate omega-hydroxylase (scov=60,ident=65.3) PlantCyc PWY-1121|suberin biosynthesis;PWY-321|cutin biosynthesis	73.8650084741156	110.222657115005	62.5925349162961	56.9240399261953	50.9647511051144
CUFF.16581	SIMILAR TO GN7W-12997-MONOMER (cassava4.1_027178m) EC-6.2.1.12 alcohol dehydrogenase; 4-coumarate-CoA ligase (scov=100,ident=76.1) PlantCyc PWY-361|phenylpropanoid biosynthesis;PWY1F-FLAVSYN|flavonoid biosynthesis;PWY-5751|phenylethanol biosynthesis;PWY-5754|4-hydroxybenzoate biosynthesis I (animals);PWY-6435|4-hydroxybenzoate biosynthesis V;PWY-1121|suberin biosynthesis	189.659218171872	192.189480992601	275.949528256737	56.2242261878663	45.6038877271201
gene.g14648.t1	SIMILAR TO GN7Y-30121-MONOMER (Potri.013G157900.1) EC-1.14.13.11 trans-cinnamate 4-monooxygenase; D-xylulose reductase (scov=97.2,ident=92.1) PlantCyc PWY1F-467|phenylpropanoid biosynthesis, initial reactions;LARABITOLUTIL-PWY|xylitol degradation;PWY-1121|suberin biosynthesis	75.3435055037017	52.0241982730357	35.7320126484872	39.5080422321026	39.366552260971
CUFF.31671	SIMILAR TO GN7V-30290-MONOMER (Glyma11g01240.1) EC-6.2.1.12 alcohol dehydrogenase; 4-coumarate-CoA ligase (scov=60.4,ident=77.2) PlantCyc PWY-361|phenylpropanoid biosynthesis;PWY1F-FLAVSYN|flavonoid biosynthesis;PWY-5751|phenylethanol biosynthesis;PWY-1121|suberin biosynthesis;PWY-6320|phaselate biosynthesis;PWY-6435|4-hydroxybenzoate biosynthesis V;PWY-5754|4-hydroxybenzoate biosynthesis I (animals)	13.9461474366182	11.0053800233246	5.17966268052103	31.1109753485077	27.0515000494293
CUFF.31934	SIMILAR TO GN80-12632-MONOMER (GSVIVT01016856001) EC-1.1.1 16-hydroxypalmitate dehydrogenase; 18-hydroxyoleate dehydrogenase (scov=74.1,ident=78.4) PlantCyc PWY-321|cutin biosynthesis;PWY-1121|suberin biosynthesis	26.2267372330749	32.9409132382221	28.7745991571827	17.8895130148193	13.2995041654251
CUFF.14124	SIMILAR TO GN7W-13866-MONOMER (cassava4.1_006099m) EC-1.14.13 palmitate-hydroxylase; 9,10-epoxystearate hydroxylase; oleate omega-hydroxylase (scov=91.4,ident=71.1) PlantCyc PWY-321|cutin biosynthesis;PWY-1121|suberin biosynthesis	70.6603207850844	41.2978218213211	30.1466199815136	20.617314487086	10.7954190884421
CUFF.60997	SIMILAR TO GN80-14024-MONOMER (GSVIVT01000764001) EC-1.14.13 palmitate-hydroxylase; 9,10-epoxystearate hydroxylase; oleate omega-hydroxylase (scov=60.9,ident=66.6) PlantCyc PWY-321|cutin biosynthesis;PWY-1121|suberin biosynthesis	5.75486765700974	4.18163673560083	2.47318707754814	6.31785097037729	9.09863298069303
CUFF.32487	Cufflinks	9.6189350972678	17.8158485160541	43.4416871105355	11.1575751004645	8.5526955244879
CUFF.21304	SIMILAR TO GN7W-16512-MONOMER (cassava4.1_006052m) EC-1.14.13 palmitate-hydroxylase; 9,10-epoxystearate hydroxylase; oleate omega-hydroxylase (scov=95.4,ident=66.6) PlantCyc PWY-321|cutin biosynthesis;PWY-1121|suberin biosynthesis	1.63562944893221	0.549247362189201	1.87168370360739	3.89312984256613	4.99116388604399
CUFF.43743	SIMILAR TO GN7L-9388-MONOMER (evm.model.supercontig_2.290) EC-1.1.1.9 trans-cinnamate 4-monooxygenase; D-xylulose reductase (scov=95.8,ident=88.7) PlantCyc LARABITOLUTIL-PWY|xylitol degradation;PWY1F-467|phenylpropanoid biosynthesis, initial reactions;PWY-1121|suberin biosynthesis	1.96503506787871	1.90739938175579	0.916987155027301	4.28666808933609	3.58233466962385
CUFF.51381	SIMILAR TO GN7Y-28011-MONOMER (Potri.010G224100.1) EC-4.3.1.24 phenylalanine ammonia-lyase (scov=100,ident=85.8) PlantCyc PWY1F-467|phenylpropanoid biosynthesis, initial reactions;PWY-1121|suberin biosynthesis	4.83846949809198	5.37961456068992	36.5962344060675	1.22839073558579	3.52686690288658
CUFF.13893	SIMILAR TO GN7V-30556-MONOMER (Glyma05g37700.1) EC-1.14.13 palmitate-hydroxylase; oleate omega-hydroxylase; cytochrome P450 fatty acid omega-hydroxylase; oleoyl-CoA hydrolase (scov=97.9,ident=80.3) PlantCyc PWY-321|cutin biosynthesis;PWY-1121|suberin biosynthesis	59.246291408296	247.516641472712	257.697697319733	2.46162486427185	2.66215108609024
CUFF.32472	SIMILAR TO GN80-11857-MONOMER (GSVIVT01019691001) EC-2.1.1.68 caffeate O-methyltransferase (scov=92.6,ident=64.8) PlantCyc PWY-2181|free phenylpropanoid acid biosynthesis;PWY-361|phenylpropanoid biosynthesis;PWY-1121|suberin biosynthesis	0.53345810067209	1.16087022800571	1.0599677903261	2.67555385274968	2.64810643926232
CUFF.14123	SIMILAR TO GN7Y-21494-MONOMER (Potri.002G042100.1) EC-1.14.13 palmitate-hydroxylase; 9,10-epoxystearate hydroxylase; oleate omega-hydroxylase (scov=88.2,ident=69.1) PlantCyc PWY-321|cutin biosynthesis;PWY-1121|suberin biosynthesis	6.0696344520367	3.14823940162252	1.99831286249993	3.27707150256346	2.35706279428428
CUFF.14130	SIMILAR TO GN7Y-30702-MONOMER (Potri.002G042200.1) EC-1.14.13 palmitate-hydroxylase; 9,10-epoxystearate hydroxylase; oleate omega-hydroxylase (scov=92.2,ident=66) PlantCyc PWY-1121|suberin biosynthesis;PWY-321|cutin biosynthesis	5.88216911479894	3.41038478901641	2.02984700537513	0.622562722000737	2.12645116404349
CUFF.13892	SIMILAR TO GN7V-30556-MONOMER (Glyma05g37700.1) EC-1.14.13 palmitate-hydroxylase; oleate omega-hydroxylase; cytochrome P450 fatty acid omega-hydroxylase; oleoyl-CoA hydrolase (scov=97.9,ident=80.3) PlantCyc PWY-321|cutin biosynthesis;PWY-1121|suberin biosynthesis	46.7095897621758	193.986759100485	201.616357416157	1.9460142508095	2.10453835859836
CUFF.58857	SIMILAR TO GN7W-13376-MONOMER (cassava4.1_015314m) EC-2.3.1.110 tyramine N-feruloyltransferase (scov=86.7,ident=71.9) PlantCyc PWY-5474|hydroxycinnamic acid tyramine amides biosynthesis;PWY-1121|suberin biosynthesis	3.07437497844142	2.24471389844275	1.7320094421852	1.65180694379171	1.40827605820636
CUFF.6817	SIMILAR TO GN7W-11153-MONOMER (cassava4.1_030251m) EC-1.14.13 palmitate-hydroxylase; 9,10-epoxystearate hydroxylase; oleate omega-hydroxylase (scov=100,ident=73.5) PlantCyc PWY-321|cutin biosynthesis;PWY-1121|suberin biosynthesis	0.681766280172994	0.846706488034803	1.85345838936803	2.56822273289902	1.18739318613576
CUFF.21431	SIMILAR TO GN80-12632-MONOMER (GSVIVT01016856001) EC-1.1.1 16-hydroxypalmitate dehydrogenase; 18-hydroxyoleate dehydrogenase (scov=94.4,ident=74.9) PlantCyc PWY-321|cutin biosynthesis;PWY-1121|suberin biosynthesis	62.2249746017479	143.533991715882	13.1991881024575	6.47197933517786	0.74134706939889
CUFF.41454	SIMILAR TO GN80-14464-MONOMER (GSVIVT01024781001) EC-1.14.13 palmitate-hydroxylase; oleate omega-hydroxylase; cytochrome P450 fatty acid omega-hydroxylase; oleoyl-CoA hydrolase (scov=99.4,ident=82.4) PlantCyc PWY-321|cutin biosynthesis;PWY-1121|suberin biosynthesis	8.43807000730807	2.39123178498489	0.796758694175757	0.234192271333498	0.411279438421104
CUFF.14638	SIMILAR TO GN80-14464-MONOMER (GSVIVT01024781001) EC-1.14.13 palmitate-hydroxylase; oleate omega-hydroxylase; cytochrome P450 fatty acid omega-hydroxylase; oleoyl-CoA hydrolase (scov=93.3,ident=85.2) PlantCyc PWY-321|cutin biosynthesis;PWY-1121|suberin biosynthesis	1.77278563899845	0.357780001988624	0.247483382129777	0.300892505593902	0.143817773170741
CUFF.28304	SIMILAR TO GN7Y-36550-MONOMER (Potri.014G085800.1) EC-1.14.13 palmitate-hydroxylase; oleate omega-hydroxylase; cytochrome P450 fatty acid omega-hydroxylase; oleoyl-CoA hydrolase (scov=92.2,ident=82.8) PlantCyc PWY-321|cutin biosynthesis;PWY-1121|suberin biosynthesis	9.50928679598162	11.0340615342925	15.133529025652	0.827152817911994	0.101692074059538
